<?xml version="1.0" standalone="no"?>
<!DOCTYPE svg PUBLIC "-//W3C//DTD SVG 20010904//EN"
 "http://www.w3.org/TR/2001/REC-SVG-20010904/DTD/svg10.dtd">
<svg version="1.0" xmlns="http://www.w3.org/2000/svg"
 width="700.000000pt" height="700.000000pt" viewBox="0 0 700.000000 700.000000"
 preserveAspectRatio="xMidYMid meet">
<metadata>
Created by potrace 1.11, written by Peter Selinger 2001-2013
</metadata>
<g transform="translate(0.000000,700.000000) scale(0.100000,-0.100000)"
fill="#000000" stroke="none">
<path d="M0 3500 l0 -3500 3500 0 3500 0 0 3500 0 3500 -3500 0 -3500 0 0
-3500z m5340 2350 l0 -300 -1315 0 -1315 0 0 -785 0 -785 1260 0 1260 0 0
-300 0 -300 -1260 0 -1260 0 0 -960 0 -960 1348 -2 1347 -3 3 -302 2 -303
-1710 0 -1710 0 0 2650 0 2650 1675 0 1675 0 0 -300z"/>
</g>
</svg>
